"entityName","entityId","metadataUrl"
"Aruba ID","https://loginspid.aruba.it","https://loginspid.aruba.it/metadata"
"Infocert ID","https://identity.infocert.it","https://identity.infocert.it/metadata/metadata.xml"
"Intesa ID","https://spid.intesa.it","https://spid.intesa.it/metadata/metadata.xml"
"Lepida ID","https://id.lepida.it/idp/shibboleth","https://id.lepida.it/idp/shibboleth"
"Namirial ID","https://idp.namirialtsp.com/idp","https://idp.namirialtsp.com/idp/metadata"
"Poste ID","https://posteid.poste.it","http://posteid.poste.it/jod-fs/metadata/metadata.xml"
"Sielte ID","https://identity.sieltecloud.it","https://identity.sieltecloud.it/simplesaml/metadata.xml"
"SPIDItalia Register.it","https://spid.register.it","https://spid.register.it/login/metadata"
"Tim ID","https://login.id.tim.it/affwebservices/public/saml2sso","https://login.id.tim.it/spid-services/MetadataBrowser/idp"